<?xml version="1.0" encoding="utf-8"?>
<!-- Generator: Adobe Illustrator 17.1.0, SVG Export Plug-In . SVG Version: 6.00 Build 0)  -->
<!DOCTYPE svg PUBLIC "-//W3C//DTD SVG 1.1//EN" "http://www.w3.org/Graphics/SVG/1.1/DTD/svg11.dtd">
<svg version="1.1" id="Layer_1" xmlns="http://www.w3.org/2000/svg" xmlns:xlink="http://www.w3.org/1999/xlink" x="0px" y="0px"
	 viewBox="0 0 173.909 173.912" enable-background="new 0 0 173.909 173.912" xml:space="preserve">
<g>
	<path fill="#FFFFFF" d="M173.909,86.956c0,48.02-38.927,86.956-86.95,86.956C38.933,173.912,0,134.976,0,86.956
		C0,38.933,38.933,0,86.959,0C134.982,0,173.909,38.933,173.909,86.956z"/>
	<g>
		<g>
			<g>
				<g>
					<path fill="#F7ED42" d="M10.603,104.876C8.955,104.947,8.955,104.947,10.603,104.876l53.893-2.309c1.648-0.071,1.648-0.071,0,0
						L10.603,104.876z"/>
				</g>
				<g>
					<path fill="#83CDD1" d="M86.982,111.866c-0.011,0.017,0.775,1.122,1.748,2.455l31.75,43.516
						c0.973,1.333,1.756,2.38,1.741,2.326c-0.015-0.054-0.823-1.188-1.796-2.521l-31.655-43.383
						C87.798,112.925,86.993,111.849,86.982,111.866z"/>
				</g>
				<g>
					<path fill="#83CDD1" d="M166.299,105.003c-0.002-0.001-1.352-0.06-3.001-0.13l-53.782-2.305
						c-1.648-0.071-2.997-0.125-2.997-0.121c0,0.004,1.349,0.065,2.997,0.135l53.789,2.295
						C164.954,104.947,166.301,105.004,166.299,105.003z"/>
				</g>
				<polygon fill="#83CDD1" points="73.504,76.114 76.165,64.439 76.077,64.406 23.241,36.111 62.589,81.334 62.608,81.356 
					62.678,81.334 				"/>
				<polygon fill="#95C841" points="103.846,90.73 106.519,102.438 166.295,105.001 111.312,81.356 				"/>
				<polygon fill="#EEEA47" points="70.151,90.811 62.608,81.356 7.606,105.004 67.493,102.438 				"/>
				<g>
					<path fill="#F4EB41" d="M65.38,80.031C63.894,80.748,63.894,80.748,65.38,80.031l5.421-2.611
						c1.486-0.716,2.703-1.303,2.703-1.304s-1.216,0.585-2.702,1.301L65.38,80.031z"/>
				</g>
				<polygon fill="#90C340" points="73.504,76.118 62.678,81.334 62.608,81.356 70.151,90.811 				"/>
				<g>
					<path fill="#F4B863" d="M76.169,64.422c0.002-0.009,0.248-1.344,0.546-2.967L86.46,8.399c0.298-1.623,0.298-1.623,0,0
						l-9.746,53.056C76.416,63.078,76.171,64.413,76.169,64.422C76.167,64.431,76.167,64.431,76.169,64.422z"/>
				</g>
				<g>
					<path fill="#F4B863" d="M74.17,73.189C73.804,74.798,73.804,74.798,74.17,73.189l1.328-5.825c0.367-1.609,0.367-1.609,0,0
						L74.17,73.189z"/>
				</g>
				<g>
					<path fill="#F4B863" d="M66.701,105.332C67.137,103.741,67.137,103.741,66.701,105.332L52.46,157.366
						c-0.436,1.591-0.436,1.591,0,0L66.701,105.332z"/>
				</g>
				<g>
					<path fill="#F4B863" d="M148.031,37.527C149.486,36.748,149.486,36.748,148.031,37.527L100.484,62.99
						c-1.455,0.779-1.455,0.779,0,0L148.031,37.527z"/>
				</g>
				<polygon fill="#EAB331" points="97.839,64.406 100.512,76.165 111.246,81.334 111.312,81.356 111.334,81.334 150.676,36.111 
					97.839,64.406 				"/>
				<g>
					<path fill="#F4B863" d="M68.162,99.514C67.794,101.122,67.794,101.122,68.162,99.514l1.321-5.778c0.368-1.609,0.368-1.609,0,0
						L68.162,99.514z"/>
				</g>
				<g>
					<polygon fill="#F4B863" points="73.504,76.116 73.504,76.116 73.504,76.116 					"/>
				</g>
				<polygon fill="#939A3B" points="111.312,81.356 111.246,81.334 100.512,76.165 103.846,90.73 				"/>
				<g>
					<path fill="#F4B863" d="M73.504,76.116c0,0.001-0.3,1.318-0.667,2.927l-2.018,8.844c-0.367,1.609-0.367,1.609,0,0l2.018-8.847
						C73.203,77.43,73.504,76.115,73.504,76.116z"/>
				</g>
				<g>
					<path fill="#E54146" d="M121.402,157.171c0.435,1.592,0.823,2.938,0.863,2.991c0.039,0.054-0.285-1.205-0.72-2.796
						l-14.235-52.019c-0.436-1.591-0.81-2.897-0.832-2.901c-0.022-0.004,0.316,1.295,0.751,2.886L121.402,157.171z"/>
				</g>
				<g>
					<path fill="#E54146" d="M97.838,64.406c0,0-0.242-1.328-0.541-2.951L87.545,8.399c-0.298-1.623-0.298-1.623,0,0l9.749,53.056
						C97.592,63.078,97.837,64.406,97.838,64.406z"/>
				</g>
				<g>
					<path fill="#E54146" d="M53.436,157.836C52.464,159.169,52.464,159.169,53.436,157.836l31.757-43.516
						c0.973-1.333,0.973-1.333,0,0L53.436,157.836z"/>
				</g>
				<polygon fill="#96454C" points="94.49,102.438 87.002,111.835 86.962,111.897 86.962,111.897 87.002,111.835 122.193,160.065 
					106.438,102.438 				"/>
				<g>
					<path fill="#E54146" d="M106.478,102.438c-0.022,0-0.022,0.003,0,0.007c0.022,0.004,0.04,0.004,0.04,0
						C106.519,102.442,106.5,102.438,106.478,102.438z"/>
				</g>
				<polygon fill="#8D3F32" points="94.49,102.438 106.438,102.438 106.519,102.438 103.846,90.73 				"/>
				<polygon fill="#E54146" points="76.165,64.439 86.962,69.637 97.836,64.406 87.002,5.449 76.173,64.406 				"/>
				<polygon fill="#963B3B" points="76.165,64.439 73.504,76.114 86.962,69.637 				"/>
				<g>
					<path fill="#E54146" d="M89.665,68.336C88.178,69.052,88.178,69.052,89.665,68.336l5.47-2.63c1.487-0.715,2.703-1.3,2.703-1.3
						s-1.219,0.585-2.706,1.301L89.665,68.336z"/>
				</g>
				<polygon fill="#DA582B" points="86.91,111.835 79.422,102.438 67.493,102.438 67.493,102.438 51.668,160.26 86.962,111.897 				
					"/>
				<polygon fill="#DC442B" points="97.839,64.406 97.839,64.406 97.839,64.406 86.962,69.637 100.512,76.165 				"/>
				<polygon fill="#D9472A" points="67.493,102.438 67.493,102.438 67.493,102.438 79.422,102.438 70.151,90.811 				"/>
				<g>
					<path fill="#E54146" d="M84.259,70.938C85.745,70.222,85.745,70.222,84.259,70.938l-8.052,3.875c-1.487,0.716-1.487,0.716,0,0
						L84.259,70.938z"/>
				</g>
				<polygon fill="#933733" points="86.91,111.835 86.962,111.897 87.002,111.835 94.49,102.438 79.422,102.438 				"/>
				<polygon fill="#933E34" points="100.512,76.165 86.962,69.637 73.504,76.114 70.151,90.811 79.422,102.438 94.49,102.438 
					103.846,90.73 				"/>
			</g>
		</g>
	</g>
</g>
<g>
</g>
<g>
</g>
<g>
</g>
<g>
</g>
<g>
</g>
<g>
</g>
</svg>
